%YAML 1.1
%TAG !u! tag:unity3d.com,2011:
--- !u!1045 &1
EditorBuildSettings:
  m_ObjectHideFlags: 0
  serializedVersion: 2
  m_Scenes:
  - enabled: 0
    path: 
    guid: 00000000000000000000000000000000
  - enabled: 1
    path: Assets/Scenes/LoadingScene.unity
    guid: 13a277324f60f4aa7b50a1345c30e38f
  - enabled: 1
    path: Assets/Scenes/GameManagement.unity
    guid: 3c82ef51999b74c45803d08286ab4756
  - enabled: 1
    path: Assets/Scenes/PlayerMap.unity
    guid: fac1f55176c204fa3af269109c75a1c9
  m_configObjects: {}
